<svg width="292" height="94" viewBox="0 0 292 94" fill="none" xmlns="http://www.w3.org/2000/svg">
<rect width="292" height="94" rx="10" fill="white"/>
<path d="M100.162 35H104.614C107.82 35 110.018 33.068 110.018 30.1C110.018 27.132 107.82 25.2 104.614 25.2H100.162V35ZM102.43 33.138V27.062H104.502C106.448 27.062 107.722 28.224 107.722 30.1C107.722 31.976 106.448 33.138 104.502 33.138H102.43ZM116.474 35.168C119.554 35.168 121.836 33.026 121.836 30.1C121.836 27.174 119.554 25.032 116.474 25.032C113.38 25.032 111.112 27.188 111.112 30.1C111.112 33.012 113.38 35.168 116.474 35.168ZM116.474 33.236C114.724 33.236 113.408 31.962 113.408 30.1C113.408 28.238 114.724 26.964 116.474 26.964C118.224 26.964 119.54 28.238 119.54 30.1C119.54 31.962 118.224 33.236 116.474 33.236ZM135.855 25.2L133.573 32.144L131.333 25.2H129.233L126.923 32.088L124.711 25.2H122.359L125.579 35H128.001L130.227 28.364L132.383 35H134.819L138.025 25.2H135.855ZM146.039 25.2V31.15L141.167 25.2H139.291V35H141.531V29.05L146.417 35H148.279V25.2H146.039ZM150.598 35H157.78V33.152H152.866V25.2H150.598V35ZM163.629 35.168C166.709 35.168 168.991 33.026 168.991 30.1C168.991 27.174 166.709 25.032 163.629 25.032C160.535 25.032 158.267 27.188 158.267 30.1C158.267 33.012 160.535 35.168 163.629 35.168ZM163.629 33.236C161.879 33.236 160.563 31.962 160.563 30.1C160.563 28.238 161.879 26.964 163.629 26.964C165.379 26.964 166.695 28.238 166.695 30.1C166.695 31.962 165.379 33.236 163.629 33.236ZM177.88 35H180.26L175.878 25.2H173.638L169.27 35H171.594L172.462 32.9H177.012L177.88 35ZM173.19 31.178L174.744 27.426L176.298 31.178H173.19ZM181.277 35H185.729C188.935 35 191.133 33.068 191.133 30.1C191.133 27.132 188.935 25.2 185.729 25.2H181.277V35ZM183.545 33.138V27.062H185.617C187.563 27.062 188.837 28.224 188.837 30.1C188.837 31.976 187.563 33.138 185.617 33.138H183.545ZM201.554 35.168C204.634 35.168 206.916 33.026 206.916 30.1C206.916 27.174 204.634 25.032 201.554 25.032C198.46 25.032 196.192 27.188 196.192 30.1C196.192 33.012 198.46 35.168 201.554 35.168ZM201.554 33.236C199.804 33.236 198.488 31.962 198.488 30.1C198.488 28.238 199.804 26.964 201.554 26.964C203.304 26.964 204.62 28.238 204.62 30.1C204.62 31.962 203.304 33.236 201.554 33.236ZM215.369 25.2V31.15L210.497 25.2H208.621V35H210.861V29.05L215.747 35H217.609V25.2H215.369ZM225.922 35H228.19V27.048H231.326V25.2H222.786V27.048H225.922V35ZM239.267 25.2V29.064H234.815V25.2H232.547V35H234.815V30.982H239.267V35H241.535V25.2H239.267ZM246.107 33.18V30.912H250.657V29.148H246.107V27.02H251.259V25.2H243.853V35H251.441V33.18H246.107Z" fill="black"/>
<path d="M114.756 65H119.176L111.038 46.8H106.878L98.766 65H103.082L104.694 61.1H113.144L114.756 65ZM106.046 57.902L108.932 50.934L111.818 57.902H106.046ZM128.942 46.8H121.064V65H125.276V59.982H128.942C133.804 59.982 136.846 57.46 136.846 53.404C136.846 49.322 133.804 46.8 128.942 46.8ZM128.708 56.55H125.276V50.232H128.708C131.282 50.232 132.582 51.402 132.582 53.404C132.582 55.38 131.282 56.55 128.708 56.55ZM147.731 46.8H139.853V65H144.065V59.982H147.731C152.593 59.982 155.635 57.46 155.635 53.404C155.635 49.322 152.593 46.8 147.731 46.8ZM147.497 56.55H144.065V50.232H147.497C150.071 50.232 151.371 51.402 151.371 53.404C151.371 55.38 150.071 56.55 147.497 56.55ZM172.24 65.312C177.44 65.312 179.962 62.712 179.962 59.67C179.962 52.988 169.38 55.302 169.38 51.948C169.38 50.804 170.342 49.868 172.838 49.868C174.45 49.868 176.192 50.336 177.882 51.298L179.182 48.1C177.492 47.034 175.152 46.488 172.864 46.488C167.69 46.488 165.194 49.062 165.194 52.156C165.194 58.916 175.776 56.576 175.776 59.982C175.776 61.1 174.762 61.932 172.266 61.932C170.082 61.932 167.794 61.152 166.26 60.034L164.83 63.206C166.442 64.454 169.354 65.312 172.24 65.312ZM186.356 65H190.568V50.232H196.392V46.8H180.532V50.232H186.356V65ZM207.218 65.312C212.938 65.312 217.176 61.334 217.176 55.9C217.176 50.466 212.938 46.488 207.218 46.488C201.472 46.488 197.26 50.492 197.26 55.9C197.26 61.308 201.472 65.312 207.218 65.312ZM207.218 61.724C203.968 61.724 201.524 59.358 201.524 55.9C201.524 52.442 203.968 50.076 207.218 50.076C210.468 50.076 212.912 52.442 212.912 55.9C212.912 59.358 210.468 61.724 207.218 61.724ZM236.462 65L232.38 59.15C234.746 58.136 236.124 56.134 236.124 53.404C236.124 49.322 233.082 46.8 228.22 46.8H220.342V65H224.554V59.93H228.22H228.428L231.938 65H236.462ZM231.86 53.404C231.86 55.38 230.56 56.576 227.986 56.576H224.554V50.232H227.986C230.56 50.232 231.86 51.402 231.86 53.404ZM243.647 61.62V57.408H252.097V54.132H243.647V50.18H253.215V46.8H239.461V65H253.553V61.62H243.647Z" fill="black"/>
<path d="M78.2817 47.9072C78.3606 56.4259 85.7556 59.2611 85.8371 59.2974C85.7746 59.4967 84.6558 63.3374 81.9416 67.3036C79.5953 70.7329 77.1598 74.1494 73.3241 74.221C69.555 74.2899 68.3429 71.9853 64.0332 71.9853C59.7249 71.9853 58.3786 74.1494 54.8103 74.2899C51.1073 74.4304 48.2876 70.5811 45.9218 67.165C41.0878 60.176 37.3935 47.4155 42.3539 38.8021C44.818 34.5246 49.2224 31.8162 54.0024 31.7465C57.6382 31.6771 61.0702 34.1924 63.2928 34.1924C65.514 34.1924 69.6846 31.1674 74.069 31.6114C75.9046 31.688 81.0566 32.3527 84.3649 37.1957C84.0989 37.3611 78.2178 40.7849 78.2817 47.9072ZM71.198 26.9882C73.1637 24.6088 74.4868 21.2956 74.1261 18C71.2923 18.1137 67.8657 19.8882 65.8335 22.2666C64.0119 24.3723 62.4169 27.7435 62.8469 30.9739C66.0056 31.2186 69.2319 29.3689 71.198 26.9882Z" fill="black"/>
</svg>
